UCPA 101,Time,Celsius(°C),Serial Number
1,2020-07-03 11:45:00,27.5,52316969
2,2020-07-03 12:45:00,26.5,
3,2020-07-03 13:45:00,26.5,
4,2020-07-03 14:45:00,26.5,
5,2020-07-03 15:45:00,27.0,
6,2020-07-03 16:45:00,27.0,
7,2020-07-03 17:45:00,27.5,
8,2020-07-03 18:45:00,27.5,
9,2020-07-03 19:45:00,27.5,
10,2020-07-03 20:45:00,27.5,
11,2020-07-03 21:45:00,27.5,
12,2020-07-03 22:45:00,27.5,
13,2020-07-03 23:45:00,27.0,
14,2020-07-04 00:45:00,27.0,
15,2020-07-04 01:45:00,27.0,
16,2020-07-04 02:45:00,27.0,
17,2020-07-04 03:45:00,27.0,
18,2020-07-04 04:45:00,27.0,
19,2020-07-04 05:45:00,27.0,
20,2020-07-04 06:45:00,27.0,
21,2020-07-04 07:45:00,26.5,
22,2020-07-04 08:45:00,27.0,
23,2020-07-04 09:45:00,27.0,
24,2020-07-04 10:45:00,27.0,
25,2020-07-04 11:45:00,27.0,
26,2020-07-04 12:45:00,27.0,
27,2020-07-04 13:45:00,27.5,
28,2020-07-04 14:45:00,27.5,
29,2020-07-04 15:45:00,28.0,
30,2020-07-04 16:45:00,28.0,
31,2020-07-04 17:45:00,28.5,
32,2020-07-04 18:45:00,28.5,
33,2020-07-04 19:45:00,28.0,
34,2020-07-04 20:45:00,28.0,
35,2020-07-04 21:45:00,28.0,
36,2020-07-04 22:45:00,28.0,
37,2020-07-04 23:45:00,27.5,
38,2020-07-05 00:45:00,27.5,
39,2020-07-05 01:45:00,27.5,
40,2020-07-05 02:45:00,27.5,
41,2020-07-05 03:45:00,27.5,
42,2020-07-05 04:45:00,27.5,
43,2020-07-05 05:45:00,27.5,
44,2020-07-05 06:45:00,27.5,
45,2020-07-05 07:45:00,27.5,
46,2020-07-05 08:45:00,27.5,
47,2020-07-05 09:45:00,27.5,
48,2020-07-05 10:45:00,27.5,
49,2020-07-05 11:45:00,27.5,
50,2020-07-05 12:45:00,28.0,
51,2020-07-05 13:45:00,28.0,
52,2020-07-05 14:45:00,28.5,
53,2020-07-05 15:45:00,28.5,
54,2020-07-05 16:45:00,29.0,
55,2020-07-05 17:45:00,29.0,
56,2020-07-05 18:45:00,29.5,
57,2020-07-05 19:45:00,29.0,
58,2020-07-05 20:45:00,29.0,
59,2020-07-05 21:45:00,29.0,
60,2020-07-05 22:45:00,29.0,
61,2020-07-05 23:45:00,29.0,
62,2020-07-06 00:45:00,29.0,
63,2020-07-06 01:45:00,29.0,
64,2020-07-06 02:45:00,28.5,
65,2020-07-06 03:45:00,28.5,
66,2020-07-06 04:45:00,28.5,
67,2020-07-06 05:45:00,28.5,
68,2020-07-06 06:45:00,28.5,
69,2020-07-06 07:45:00,28.5,
70,2020-07-06 08:45:00,27.5,
71,2020-07-06 09:45:00,27.0,
72,2020-07-06 10:45:00,27.0,
73,2020-07-06 11:45:00,27.5,
74,2020-07-06 12:45:00,27.0,
75,2020-07-06 13:45:00,27.5,
76,2020-07-06 14:45:00,28.0,
77,2020-07-06 15:45:00,28.5,
78,2020-07-06 16:45:00,28.5,
79,2020-07-06 17:45:00,29.0,
80,2020-07-06 18:45:00,29.0,
81,2020-07-06 19:45:00,29.0,
82,2020-07-06 20:45:00,28.5,
83,2020-07-06 21:45:00,28.5,
84,2020-07-06 22:45:00,28.5,
85,2020-07-06 23:45:00,28.5,
86,2020-07-07 00:45:00,28.5,
87,2020-07-07 01:45:00,28.5,
88,2020-07-07 02:45:00,28.5,
89,2020-07-07 03:45:00,28.5,
90,2020-07-07 04:45:00,28.5,
91,2020-07-07 05:45:00,28.5,
92,2020-07-07 06:45:00,28.5,
93,2020-07-07 07:45:00,28.0,
94,2020-07-07 08:45:00,27.0,
95,2020-07-07 09:45:00,27.0,
96,2020-07-07 10:45:00,27.5,
97,2020-07-07 11:45:00,27.0,
98,2020-07-07 12:45:00,26.5,
99,2020-07-07 13:45:00,27.0,
100,2020-07-07 14:45:00,27.5,
101,2020-07-07 15:45:00,28.0,
102,2020-07-07 16:45:00,28.5,
103,2020-07-07 17:45:00,28.5,
104,2020-07-07 18:45:00,28.5,
105,2020-07-07 19:45:00,28.5,
106,2020-07-07 20:45:00,28.5,
107,2020-07-07 21:45:00,28.5,
108,2020-07-07 22:45:00,28.5,
109,2020-07-07 23:45:00,28.5,
110,2020-07-08 00:45:00,28.0,
111,2020-07-08 01:45:00,28.0,
112,2020-07-08 02:45:00,28.0,
113,2020-07-08 03:45:00,28.0,
114,2020-07-08 04:45:00,28.0,
115,2020-07-08 05:45:00,28.0,
116,2020-07-08 06:45:00,28.0,
117,2020-07-08 07:45:00,28.0,
118,2020-07-08 08:45:00,28.0,
119,2020-07-08 09:45:00,27.5,
120,2020-07-08 10:45:00,27.0,
121,2020-07-08 11:45:00,27.5,
122,2020-07-08 12:45:00,28.0,
123,2020-07-08 13:45:00,28.5,
124,2020-07-08 14:45:00,28.5,
125,2020-07-08 15:45:00,29.0,
126,2020-07-08 16:45:00,29.0,
127,2020-07-08 17:45:00,29.0,
128,2020-07-08 18:45:00,30.0,
129,2020-07-08 19:45:00,30.0,
130,2020-07-08 20:45:00,29.5,
131,2020-07-08 21:45:00,29.0,
132,2020-07-08 22:45:00,29.0,
133,2020-07-08 23:45:00,28.5,
134,2020-07-09 00:45:00,28.0,
135,2020-07-09 01:45:00,28.0,
136,2020-07-09 02:45:00,27.5,
137,2020-07-09 03:45:00,27.5,
138,2020-07-09 04:45:00,27.0,
139,2020-07-09 05:45:00,26.5,
140,2020-07-09 06:45:00,26.5,
141,2020-07-09 07:45:00,26.5,
142,2020-07-09 08:45:00,27.0,
143,2020-07-09 09:45:00,27.0,
144,2020-07-09 10:45:00,27.5,
145,2020-07-09 11:45:00,28.0,
146,2020-07-09 12:45:00,28.5,
147,2020-07-09 13:45:00,28.5,
148,2020-07-09 14:45:00,29.0,
149,2020-07-09 15:45:00,29.5,
150,2020-07-09 16:45:00,30.0,
151,2020-07-09 17:45:00,30.0,
152,2020-07-09 18:45:00,30.0,
153,2020-07-09 19:45:00,30.0,
154,2020-07-09 20:45:00,30.0,
155,2020-07-09 21:45:00,30.0,
156,2020-07-09 22:45:00,30.0,
157,2020-07-09 23:45:00,29.5,
158,2020-07-10 00:45:00,29.5,
159,2020-07-10 01:45:00,29.5,
160,2020-07-10 02:45:00,29.5,
161,2020-07-10 03:45:00,29.5,
162,2020-07-10 04:45:00,29.5,
163,2020-07-10 05:45:00,29.5,
164,2020-07-10 06:45:00,29.5,
165,2020-07-10 07:45:00,29.5,
166,2020-07-10 08:45:00,29.5,
167,2020-07-10 09:45:00,29.5,
168,2020-07-10 10:45:00,29.5,
169,2020-07-10 11:45:00,30.0,
170,2020-07-10 12:45:00,30.0,
171,2020-07-10 13:45:00,30.5,
172,2020-07-10 14:45:00,30.5,
173,2020-07-10 15:45:00,30.5,
174,2020-07-10 16:45:00,30.5,
175,2020-07-10 17:45:00,31.0,
176,2020-07-10 18:45:00,30.5,
177,2020-07-10 19:45:00,30.5,
178,2020-07-10 20:45:00,30.5,
179,2020-07-10 21:45:00,30.5,
180,2020-07-10 22:45:00,30.5,
181,2020-07-10 23:45:00,30.5,
182,2020-07-11 00:45:00,30.5,
183,2020-07-11 01:45:00,30.0,
184,2020-07-11 02:45:00,30.0,
185,2020-07-11 03:45:00,30.0,
186,2020-07-11 04:45:00,30.0,
187,2020-07-11 05:45:00,30.0,
188,2020-07-11 06:45:00,30.0,
189,2020-07-11 07:45:00,30.0,
190,2020-07-11 08:45:00,30.0,
191,2020-07-11 09:45:00,30.0,
192,2020-07-11 10:45:00,30.0,
193,2020-07-11 11:45:00,30.0,
194,2020-07-11 12:45:00,30.0,
195,2020-07-11 13:45:00,30.0,
196,2020-07-11 14:45:00,30.0,
197,2020-07-11 15:45:00,30.0,
198,2020-07-11 16:45:00,30.0,
199,2020-07-11 17:45:00,30.0,
200,2020-07-11 18:45:00,30.0,
201,2020-07-11 19:45:00,30.0,
202,2020-07-11 20:45:00,30.0,
203,2020-07-11 21:45:00,30.0,
204,2020-07-11 22:45:00,29.5,
205,2020-07-11 23:45:00,29.5,
206,2020-07-12 00:45:00,29.5,
207,2020-07-12 01:45:00,29.5,
208,2020-07-12 02:45:00,29.0,
209,2020-07-12 03:45:00,29.0,
210,2020-07-12 04:45:00,29.0,
211,2020-07-12 05:45:00,29.0,
212,2020-07-12 06:45:00,29.0,
213,2020-07-12 07:45:00,29.0,
214,2020-07-12 08:45:00,29.0,
215,2020-07-12 09:45:00,29.0,
216,2020-07-12 10:45:00,29.0,
217,2020-07-12 11:45:00,29.0,
218,2020-07-12 12:45:00,29.0,
219,2020-07-12 13:45:00,29.0,
220,2020-07-12 14:45:00,29.0,
221,2020-07-12 15:45:00,29.0,
222,2020-07-12 16:45:00,29.0,
223,2020-07-12 17:45:00,29.0,
224,2020-07-12 18:45:00,29.0,
225,2020-07-12 19:45:00,29.0,
226,2020-07-12 20:45:00,29.0,
227,2020-07-12 21:45:00,29.0,
228,2020-07-12 22:45:00,29.0,
229,2020-07-12 23:45:00,29.0,
230,2020-07-13 00:45:00,29.0,
231,2020-07-13 01:45:00,28.5,
232,2020-07-13 02:45:00,28.5,
233,2020-07-13 03:45:00,28.5,
234,2020-07-13 04:45:00,28.5,
235,2020-07-13 05:45:00,28.5,
236,2020-07-13 06:45:00,28.5,
237,2020-07-13 07:45:00,28.5,
238,2020-07-13 08:45:00,27.5,
239,2020-07-13 09:45:00,27.0,
240,2020-07-13 10:45:00,27.0,
241,2020-07-13 11:45:00,28.0,
242,2020-07-13 12:45:00,28.0,
243,2020-07-13 13:45:00,28.0,
244,2020-07-13 14:45:00,28.5,
245,2020-07-13 15:45:00,28.5,
246,2020-07-13 16:45:00,29.5,
247,2020-07-13 17:45:00,29.5,
248,2020-07-13 18:45:00,29.5,
249,2020-07-13 19:45:00,29.0,
250,2020-07-13 20:45:00,29.0,
251,2020-07-13 21:45:00,29.0,
252,2020-07-13 22:45:00,29.0,
253,2020-07-13 23:45:00,28.5,
254,2020-07-14 00:45:00,28.5,
255,2020-07-14 01:45:00,28.5,
256,2020-07-14 02:45:00,28.5,
257,2020-07-14 03:45:00,28.5,
258,2020-07-14 04:45:00,28.5,
259,2020-07-14 05:45:00,28.0,
260,2020-07-14 06:45:00,28.0,
261,2020-07-14 07:45:00,28.0,
262,2020-07-14 08:45:00,28.0,
263,2020-07-14 09:45:00,28.0,
264,2020-07-14 10:45:00,28.0,
265,2020-07-14 11:45:00,28.5,
266,2020-07-14 12:45:00,28.5,
267,2020-07-14 13:45:00,28.5,
268,2020-07-14 14:45:00,29.0,
269,2020-07-14 15:45:00,29.0,
270,2020-07-14 16:45:00,29.0,
271,2020-07-14 17:45:00,29.0,
272,2020-07-14 18:45:00,29.0,
273,2020-07-14 19:45:00,29.0,
274,2020-07-14 20:45:00,29.0,
275,2020-07-14 21:45:00,29.0,
276,2020-07-14 22:45:00,28.5,
277,2020-07-14 23:45:00,28.5,
278,2020-07-15 00:45:00,28.5,
279,2020-07-15 01:45:00,28.5,
280,2020-07-15 02:45:00,28.5,
281,2020-07-15 03:45:00,28.0,
282,2020-07-15 04:45:00,28.0,
283,2020-07-15 05:45:00,28.0,
284,2020-07-15 06:45:00,28.0,
285,2020-07-15 07:45:00,28.0,
286,2020-07-15 08:45:00,28.0,
287,2020-07-15 09:45:00,27.5,
288,2020-07-15 10:45:00,27.0,
289,2020-07-15 11:45:00,27.0,
290,2020-07-15 12:45:00,27.0,
291,2020-07-15 13:45:00,27.5,
292,2020-07-15 14:45:00,27.5,
293,2020-07-15 15:45:00,27.5,
294,2020-07-15 16:45:00,27.5,
295,2020-07-15 17:45:00,27.5,
296,2020-07-15 18:45:00,27.5,
297,2020-07-15 19:45:00,27.5,
298,2020-07-15 20:45:00,27.5,
299,2020-07-15 21:45:00,27.5,
300,2020-07-15 22:45:00,27.5,
301,2020-07-15 23:45:00,27.5,
302,2020-07-16 00:45:00,27.5,
303,2020-07-16 01:45:00,27.0,
304,2020-07-16 02:45:00,27.0,
305,2020-07-16 03:45:00,27.0,
306,2020-07-16 04:45:00,27.0,
307,2020-07-16 05:45:00,27.0,
308,2020-07-16 06:45:00,27.0,
309,2020-07-16 07:45:00,27.0,
310,2020-07-16 08:45:00,25.5,
311,2020-07-16 09:45:00,26.0,
312,2020-07-16 10:45:00,26.0,
313,2020-07-16 11:45:00,26.0,
314,2020-07-16 12:45:00,26.0,
315,2020-07-16 13:45:00,26.5,
316,2020-07-16 14:45:00,26.5,
317,2020-07-16 15:45:00,26.5,
318,2020-07-16 16:45:00,26.5,
319,2020-07-16 17:45:00,26.5,
320,2020-07-16 18:45:00,26.5,
321,2020-07-16 19:45:00,26.5,
322,2020-07-16 20:45:00,26.5,
323,2020-07-16 21:45:00,26.5,
324,2020-07-16 22:45:00,26.5,
325,2020-07-16 23:45:00,26.5,
326,2020-07-17 00:45:00,26.5,
327,2020-07-17 01:45:00,26.5,
328,2020-07-17 02:45:00,26.5,
329,2020-07-17 03:45:00,26.0,
330,2020-07-17 04:45:00,26.0,
331,2020-07-17 05:45:00,26.0,
332,2020-07-17 06:45:00,26.0,
333,2020-07-17 07:45:00,26.0,
334,2020-07-17 08:45:00,25.0,
335,2020-07-17 09:45:00,25.5,
336,2020-07-17 10:45:00,26.0,
337,2020-07-17 11:45:00,26.0,
338,2020-07-17 12:45:00,26.5,
339,2020-07-17 13:45:00,26.5,
340,2020-07-17 14:45:00,26.5,
341,2020-07-17 15:45:00,26.5,
342,2020-07-17 16:45:00,26.5,
343,2020-07-17 17:45:00,26.5,
344,2020-07-17 18:45:00,26.5,
345,2020-07-17 19:45:00,26.5,
346,2020-07-17 20:45:00,26.5,
347,2020-07-17 21:45:00,26.0,
348,2020-07-17 22:45:00,26.0,
349,2020-07-17 23:45:00,26.0,
350,2020-07-18 00:45:00,26.0,
351,2020-07-18 01:45:00,26.0,
352,2020-07-18 02:45:00,26.0,
353,2020-07-18 03:45:00,26.0,
354,2020-07-18 04:45:00,26.0,
355,2020-07-18 05:45:00,26.0,
356,2020-07-18 06:45:00,25.5,
357,2020-07-18 07:45:00,25.5,
358,2020-07-18 08:45:00,25.5,
359,2020-07-18 09:45:00,26.0,
360,2020-07-18 10:45:00,26.0,
361,2020-07-18 11:45:00,26.0,
362,2020-07-18 12:45:00,26.0,
363,2020-07-18 13:45:00,26.5,
364,2020-07-18 14:45:00,26.5,
365,2020-07-18 15:45:00,27.0,
366,2020-07-18 16:45:00,27.0,
367,2020-07-18 17:45:00,27.0,
368,2020-07-18 18:45:00,27.0,
369,2020-07-18 19:45:00,27.0,
370,2020-07-18 20:45:00,27.0,
371,2020-07-18 21:45:00,26.5,
372,2020-07-18 22:45:00,26.5,
373,2020-07-18 23:45:00,26.5,
374,2020-07-19 00:45:00,26.5,
375,2020-07-19 01:45:00,26.5,
376,2020-07-19 02:45:00,26.0,
377,2020-07-19 03:45:00,26.0,
378,2020-07-19 04:45:00,26.0,
379,2020-07-19 05:45:00,26.0,
380,2020-07-19 06:45:00,26.0,
381,2020-07-19 07:45:00,26.0,
382,2020-07-19 08:45:00,26.0,
383,2020-07-19 09:45:00,26.0,
384,2020-07-19 10:45:00,26.0,
385,2020-07-19 11:45:00,26.0,
386,2020-07-19 12:45:00,26.5,
387,2020-07-19 13:45:00,26.5,
388,2020-07-19 14:45:00,27.0,
389,2020-07-19 15:45:00,27.0,
390,2020-07-19 16:45:00,27.5,
391,2020-07-19 17:45:00,27.5,
392,2020-07-19 18:45:00,27.5,
393,2020-07-19 19:45:00,27.5,
394,2020-07-19 20:45:00,27.0,
395,2020-07-19 21:45:00,27.0,
396,2020-07-19 22:45:00,27.0,
397,2020-07-19 23:45:00,27.0,
398,2020-07-20 00:45:00,27.0,
399,2020-07-20 01:45:00,27.0,
400,2020-07-20 02:45:00,27.0,
401,2020-07-20 03:45:00,27.0,
402,2020-07-20 04:45:00,26.5,
403,2020-07-20 05:45:00,26.5,
404,2020-07-20 06:45:00,26.5,
405,2020-07-20 07:45:00,26.5,
406,2020-07-20 08:45:00,26.0,
407,2020-07-20 09:45:00,25.5,
408,2020-07-20 10:45:00,26.0,
409,2020-07-20 11:45:00,26.5,
410,2020-07-20 12:45:00,27.0,
411,2020-07-20 13:45:00,28.5,
412,2020-07-20 14:45:00,28.0,
413,2020-07-20 15:45:00,28.0,
414,2020-07-20 16:45:00,28.0,
415,2020-07-20 17:45:00,28.5,
416,2020-07-20 18:45:00,28.5,
417,2020-07-20 19:45:00,28.5,
418,2020-07-20 20:45:00,28.0,
419,2020-07-20 21:45:00,28.0,
420,2020-07-20 22:45:00,28.0,
421,2020-07-20 23:45:00,28.0,
422,2020-07-21 00:45:00,28.0,
423,2020-07-21 01:45:00,28.0,
424,2020-07-21 02:45:00,28.0,
425,2020-07-21 03:45:00,28.0,
426,2020-07-21 04:45:00,28.0,
427,2020-07-21 05:45:00,28.0,
428,2020-07-21 06:45:00,28.0,
429,2020-07-21 07:45:00,28.0,
430,2020-07-21 08:45:00,27.5,
431,2020-07-21 09:45:00,27.0,
432,2020-07-21 10:45:00,27.5,
433,2020-07-21 11:45:00,28.0,
434,2020-07-21 12:45:00,28.5,
435,2020-07-21 13:45:00,28.5,
436,2020-07-21 14:45:00,29.0,
437,2020-07-21 15:45:00,29.0,
438,2020-07-21 16:45:00,29.5,
439,2020-07-21 17:45:00,29.5,
440,2020-07-21 18:45:00,29.5,
441,2020-07-21 19:45:00,29.5,
442,2020-07-21 20:45:00,29.5,
443,2020-07-21 21:45:00,29.0,
444,2020-07-21 22:45:00,29.0,
445,2020-07-21 23:45:00,29.0,
446,2020-07-22 00:45:00,29.0,
447,2020-07-22 01:45:00,29.0,
448,2020-07-22 02:45:00,29.0,
449,2020-07-22 03:45:00,29.0,
450,2020-07-22 04:45:00,29.0,
451,2020-07-22 05:45:00,29.0,
452,2020-07-22 06:45:00,29.0,
453,2020-07-22 07:45:00,29.0,
454,2020-07-22 08:45:00,28.5,
455,2020-07-22 09:45:00,28.0,
456,2020-07-22 10:45:00,28.0,
457,2020-07-22 11:45:00,28.0,
458,2020-07-22 12:45:00,28.5,
459,2020-07-22 13:45:00,29.5,
460,2020-07-22 14:45:00,29.5,
461,2020-07-22 15:45:00,29.5,
462,2020-07-22 16:45:00,29.0,
463,2020-07-22 17:45:00,29.0,
464,2020-07-22 18:45:00,29.0,
465,2020-07-22 19:45:00,29.0,
466,2020-07-22 20:45:00,29.0,
467,2020-07-22 21:45:00,29.0,
468,2020-07-22 22:45:00,29.0,
469,2020-07-22 23:45:00,29.0,
470,2020-07-23 00:45:00,29.0,
471,2020-07-23 01:45:00,29.0,
472,2020-07-23 02:45:00,29.0,
473,2020-07-23 03:45:00,29.0,
474,2020-07-23 04:45:00,29.0,
475,2020-07-23 05:45:00,28.5,
476,2020-07-23 06:45:00,28.5,
477,2020-07-23 07:45:00,28.5,
478,2020-07-23 08:45:00,27.5,
479,2020-07-23 09:45:00,27.0,
480,2020-07-23 10:45:00,27.0,
481,2020-07-23 11:45:00,27.0,
482,2020-07-23 12:45:00,27.5,
483,2020-07-23 13:45:00,28.5,
484,2020-07-23 14:45:00,29.0,
485,2020-07-23 15:45:00,29.5,
486,2020-07-23 16:45:00,29.5,
487,2020-07-23 17:45:00,30.0,
488,2020-07-23 18:45:00,29.5,
489,2020-07-23 19:45:00,29.5,
490,2020-07-23 20:45:00,29.5,
491,2020-07-23 21:45:00,29.5,
492,2020-07-23 22:45:00,29.0,
493,2020-07-23 23:45:00,29.0,
494,2020-07-24 00:45:00,29.0,
495,2020-07-24 01:45:00,29.0,
496,2020-07-24 02:45:00,29.0,
497,2020-07-24 03:45:00,29.0,
498,2020-07-24 04:45:00,29.0,
499,2020-07-24 05:45:00,28.5,
500,2020-07-24 06:45:00,28.5,
501,2020-07-24 07:45:00,28.5,
502,2020-07-24 08:45:00,28.0,
503,2020-07-24 09:45:00,28.0,
504,2020-07-24 10:45:00,28.0,
505,2020-07-24 11:45:00,28.5,
506,2020-07-24 12:45:00,28.5,
507,2020-07-24 13:45:00,29.0,
508,2020-07-24 14:45:00,29.0,
509,2020-07-24 15:45:00,29.5,
510,2020-07-24 16:45:00,29.5,
511,2020-07-24 17:45:00,30.0,
512,2020-07-24 18:45:00,30.0,
513,2020-07-24 19:45:00,30.0,
514,2020-07-24 20:45:00,30.0,
515,2020-07-24 21:45:00,30.0,
516,2020-07-24 22:45:00,30.0,
517,2020-07-24 23:45:00,29.5,
518,2020-07-25 00:45:00,29.5,
519,2020-07-25 01:45:00,29.5,
520,2020-07-25 02:45:00,29.5,
521,2020-07-25 03:45:00,29.5,
522,2020-07-25 04:45:00,29.5,
523,2020-07-25 05:45:00,29.5,
524,2020-07-25 06:45:00,29.5,
525,2020-07-25 07:45:00,29.5,
526,2020-07-25 08:45:00,29.5,
527,2020-07-25 09:45:00,29.5,
528,2020-07-25 10:45:00,29.5,
529,2020-07-25 11:45:00,29.5,
530,2020-07-25 12:45:00,29.5,
531,2020-07-25 13:45:00,30.0,
532,2020-07-25 14:45:00,30.0,
533,2020-07-25 15:45:00,30.0,
534,2020-07-25 16:45:00,30.5,
535,2020-07-25 17:45:00,30.5,
536,2020-07-25 18:45:00,30.5,
537,2020-07-25 19:45:00,30.5,
538,2020-07-25 20:45:00,30.5,
539,2020-07-25 21:45:00,30.5,
540,2020-07-25 22:45:00,30.5,
541,2020-07-25 23:45:00,30.5,
542,2020-07-26 00:45:00,30.5,
543,2020-07-26 01:45:00,30.5,
544,2020-07-26 02:45:00,30.5,
545,2020-07-26 03:45:00,30.5,
546,2020-07-26 04:45:00,30.5,
547,2020-07-26 05:45:00,30.5,
548,2020-07-26 06:45:00,30.0,
549,2020-07-26 07:45:00,30.0,
550,2020-07-26 08:45:00,30.0,
551,2020-07-26 09:45:00,30.5,
552,2020-07-26 10:45:00,30.5,
553,2020-07-26 11:45:00,30.5,
554,2020-07-26 12:45:00,30.5,
555,2020-07-26 13:45:00,30.5,
556,2020-07-26 14:45:00,30.5,
557,2020-07-26 15:45:00,30.5,
558,2020-07-26 16:45:00,31.0,
559,2020-07-26 17:45:00,31.0,
560,2020-07-26 18:45:00,31.0,
561,2020-07-26 19:45:00,31.0,
562,2020-07-26 20:45:00,31.0,
563,2020-07-26 21:45:00,31.0,
564,2020-07-26 22:45:00,31.0,
565,2020-07-26 23:45:00,31.0,
566,2020-07-27 00:45:00,31.0,
567,2020-07-27 01:45:00,31.0,
568,2020-07-27 02:45:00,31.0,
569,2020-07-27 03:45:00,31.0,
570,2020-07-27 04:45:00,30.5,
571,2020-07-27 05:45:00,30.5,
572,2020-07-27 06:45:00,30.5,
573,2020-07-27 07:45:00,30.5,
574,2020-07-27 08:45:00,30.0,
575,2020-07-27 09:45:00,29.0,
576,2020-07-27 10:45:00,29.0,
577,2020-07-27 11:45:00,29.0,
578,2020-07-27 12:45:00,30.0,
579,2020-07-27 13:45:00,31.0,
580,2020-07-27 14:45:00,31.0,
581,2020-07-27 15:45:00,32.0,
582,2020-07-27 16:45:00,32.0,
583,2020-07-27 17:45:00,32.0,
584,2020-07-27 18:45:00,32.0,
585,2020-07-27 19:45:00,32.0,
586,2020-07-27 20:45:00,32.0,
587,2020-07-27 21:45:00,32.0,
588,2020-07-27 22:45:00,31.5,
589,2020-07-27 23:45:00,31.5,
590,2020-07-28 00:45:00,31.5,
591,2020-07-28 01:45:00,31.5,
592,2020-07-28 02:45:00,31.5,
593,2020-07-28 03:45:00,31.5,
594,2020-07-28 04:45:00,31.5,
595,2020-07-28 05:45:00,31.5,
596,2020-07-28 06:45:00,31.5,
597,2020-07-28 07:45:00,31.5,
598,2020-07-28 08:45:00,30.5,
599,2020-07-28 09:45:00,30.0,
600,2020-07-28 10:45:00,30.0,
601,2020-07-28 11:45:00,30.0,
602,2020-07-28 12:45:00,30.5,
603,2020-07-28 13:45:00,31.0,
604,2020-07-28 14:45:00,31.5,
605,2020-07-28 15:45:00,32.0,
606,2020-07-28 16:45:00,32.5,
607,2020-07-28 17:45:00,32.5,
608,2020-07-28 18:45:00,32.5,
609,2020-07-28 19:45:00,32.5,
610,2020-07-28 20:45:00,32.5,
611,2020-07-28 21:45:00,32.5,
612,2020-07-28 22:45:00,32.0,
613,2020-07-28 23:45:00,32.0,
614,2020-07-29 00:45:00,32.0,
615,2020-07-29 01:45:00,32.0,
616,2020-07-29 02:45:00,32.0,
617,2020-07-29 03:45:00,32.0,
618,2020-07-29 04:45:00,32.0,
619,2020-07-29 05:45:00,32.0,
620,2020-07-29 06:45:00,32.0,
621,2020-07-29 07:45:00,32.0,
622,2020-07-29 08:45:00,31.5,
623,2020-07-29 09:45:00,30.0,
624,2020-07-29 10:45:00,29.5,
625,2020-07-29 11:45:00,29.5,
626,2020-07-29 12:45:00,29.5,
627,2020-07-29 13:45:00,30.0,
628,2020-07-29 14:45:00,30.5,
629,2020-07-29 15:45:00,31.0,
630,2020-07-29 16:45:00,31.5,
631,2020-07-29 17:45:00,31.5,
632,2020-07-29 18:45:00,32.0,
633,2020-07-29 19:45:00,32.0,
634,2020-07-29 20:45:00,32.0,
635,2020-07-29 21:45:00,31.5,
636,2020-07-29 22:45:00,31.5,
637,2020-07-29 23:45:00,31.5,
638,2020-07-30 00:45:00,31.0,
639,2020-07-30 01:45:00,31.0,
640,2020-07-30 02:45:00,31.0,
641,2020-07-30 03:45:00,31.0,
642,2020-07-30 04:45:00,30.5,
643,2020-07-30 05:45:00,30.5,
644,2020-07-30 06:45:00,30.5,
645,2020-07-30 07:45:00,30.5,
646,2020-07-30 08:45:00,30.0,
647,2020-07-30 09:45:00,29.5,
648,2020-07-30 10:45:00,29.5,
649,2020-07-30 11:45:00,30.0,
650,2020-07-30 12:45:00,30.5,
651,2020-07-30 13:45:00,31.0,
652,2020-07-30 14:45:00,31.5,
653,2020-07-30 15:45:00,32.0,
654,2020-07-30 16:45:00,32.5,
655,2020-07-30 17:45:00,32.5,
656,2020-07-30 18:45:00,32.5,
657,2020-07-30 19:45:00,32.5,
658,2020-07-30 20:45:00,32.5,
659,2020-07-30 21:45:00,32.5,
660,2020-07-30 22:45:00,32.5,
661,2020-07-30 23:45:00,32.5,
662,2020-07-31 00:45:00,32.5,
663,2020-07-31 01:45:00,32.5,
664,2020-07-31 02:45:00,32.5,
665,2020-07-31 03:45:00,32.5,
666,2020-07-31 04:45:00,32.5,
667,2020-07-31 05:45:00,32.5,
668,2020-07-31 06:45:00,32.5,
669,2020-07-31 07:45:00,32.5,
670,2020-07-31 08:45:00,30.5,
671,2020-07-31 09:45:00,30.5,
672,2020-07-31 10:45:00,30.5,
673,2020-07-31 11:45:00,31.5,
674,2020-07-31 12:45:00,32.5,
675,2020-07-31 13:45:00,32.5,
676,2020-07-31 14:45:00,33.0,
677,2020-07-31 15:45:00,33.0,
678,2020-07-31 16:45:00,33.0,
679,2020-07-31 17:45:00,33.5,
680,2020-07-31 18:45:00,33.5,
681,2020-07-31 19:45:00,33.5,
682,2020-07-31 20:45:00,33.5,
683,2020-07-31 21:45:00,33.5,
684,2020-07-31 22:45:00,33.5,
685,2020-07-31 23:45:00,33.5,
686,2020-08-01 00:45:00,33.5,
687,2020-08-01 01:45:00,33.0,
688,2020-08-01 02:45:00,33.0,
689,2020-08-01 03:45:00,33.0,
690,2020-08-01 04:45:00,33.0,
691,2020-08-01 05:45:00,33.0,
692,2020-08-01 06:45:00,33.0,
693,2020-08-01 07:45:00,33.0,
694,2020-08-01 08:45:00,33.0,
695,2020-08-01 09:45:00,33.0,
696,2020-08-01 10:45:00,33.0,
697,2020-08-01 11:45:00,33.0,
698,2020-08-01 12:45:00,33.5,
699,2020-08-01 13:45:00,33.5,
700,2020-08-01 14:45:00,33.5,
701,2020-08-01 15:45:00,33.5,
702,2020-08-01 16:45:00,34.0,
703,2020-08-01 17:45:00,34.0,
704,2020-08-01 18:45:00,34.0,
705,2020-08-01 19:45:00,34.0,
706,2020-08-01 20:45:00,33.5,
707,2020-08-01 21:45:00,33.5,
708,2020-08-01 22:45:00,33.5,
709,2020-08-01 23:45:00,33.5,
710,2020-08-02 00:45:00,33.5,
711,2020-08-02 01:45:00,33.5,
712,2020-08-02 02:45:00,33.5,
713,2020-08-02 03:45:00,33.5,
714,2020-08-02 04:45:00,33.5,
715,2020-08-02 05:45:00,33.5,
716,2020-08-02 06:45:00,33.5,
717,2020-08-02 07:45:00,33.5,
718,2020-08-02 08:45:00,33.5,
719,2020-08-02 09:45:00,33.5,
720,2020-08-02 10:45:00,33.5,
721,2020-08-02 11:45:00,33.5,
722,2020-08-02 12:45:00,33.5,
723,2020-08-02 13:45:00,33.5,
724,2020-08-02 14:45:00,33.5,
725,2020-08-02 15:45:00,33.5,
726,2020-08-02 16:45:00,33.5,
727,2020-08-02 17:45:00,33.5,
728,2020-08-02 18:45:00,33.5,
729,2020-08-02 19:45:00,33.5,
730,2020-08-02 20:45:00,33.5,
731,2020-08-02 21:45:00,33.0,
732,2020-08-02 22:45:00,33.0,
733,2020-08-02 23:45:00,33.0,
734,2020-08-03 00:45:00,33.0,
735,2020-08-03 01:45:00,33.0,
736,2020-08-03 02:45:00,33.0,
737,2020-08-03 03:45:00,33.0,
738,2020-08-03 04:45:00,33.0,
739,2020-08-03 05:45:00,32.5,
740,2020-08-03 06:45:00,32.5,
741,2020-08-03 07:45:00,32.5,
742,2020-08-03 08:45:00,30.5,
743,2020-08-03 09:45:00,28.5,
744,2020-08-03 10:45:00,28.0,
745,2020-08-03 11:45:00,27.5,
746,2020-08-03 12:45:00,28.0,
747,2020-08-03 13:45:00,27.5,
748,2020-08-03 14:45:00,27.5,