dt,temp
2021-04-27 00:00:00,12.71
2021-04-27 00:30:00,12.71
2021-04-27 01:00:00,12.71
2021-04-27 01:30:00,12.71
2021-04-27 02:00:00,12.71
2021-04-27 02:30:00,12.71
2021-04-27 03:00:00,12.71
2021-04-27 03:30:00,12.71
2021-04-27 04:00:00,12.71
2021-04-27 04:30:00,12.71
2021-04-27 05:00:00,12.71
2021-04-27 05:30:00,12.71
2021-04-27 06:00:00,12.71
2021-04-27 06:30:00,12.78
2021-04-27 07:00:00,12.86
2021-04-27 07:30:00,12.98
2021-04-27 08:00:00,13.1
2021-04-27 08:30:00,13.22
2021-04-27 09:00:00,13.33
2021-04-27 09:30:00,13.51
2021-04-27 10:00:00,13.69
2021-04-27 10:30:00,13.8
2021-04-27 11:00:00,13.91
2021-04-27 11:30:00,14.27
2021-04-27 12:00:00,14.63
2021-04-27 12:30:00,15.98
2021-04-27 13:00:00,17.33
2021-04-27 13:30:00,17.46
2021-04-27 14:00:00,17.6
2021-04-27 14:30:00,18.12
2021-04-27 15:00:00,18.64
2021-04-27 15:30:00,18.16
2021-04-27 16:00:00,17.67
2021-04-27 16:30:00,16.63
2021-04-27 17:00:00,15.59
2021-04-27 17:30:00,15.68
2021-04-27 18:00:00,15.76
2021-04-27 18:30:00,14.6
2021-04-27 19:00:00,13.43
2021-04-27 19:30:00,12.84
2021-04-27 20:00:00,12.24
2021-04-27 20:30:00,11.9
2021-04-27 21:00:00,11.55
2021-04-27 21:30:00,11.46
2021-04-27 22:00:00,11.37
2021-04-27 22:30:00,11.4
2021-04-27 23:00:00,11.42
